@startuml
title 【集荷関連】サプライヤーにメール送信のためのCSV作成

hide footbox
participant "NEアプリ(ふるさと納税アプリ)" as app
participant "S3" as s3

activate app
    alt 定期実行(随時)
      app -> app : "集荷依頼キューと紐付いている"かつ"紐づく集荷依頼キューの集荷依頼ステータスが正常終了"のMF受注を取得

      alt 処理データが0件の場合
        <-- app : ログ出力、処理終了
      end

      app -> app : 該当のMF受注情報を利用し、サプライヤー毎に送信するCSVファイルを作成

      app -> s3 : サプライヤーに送信するファイルをS3に保存
      activate s3
        s3 -> app : 保存先パスを返却
      deactivate s3

      app -> app : メール送信キューを登録(ファイルパス、メール送信ステータスは処理待ち)

      app -> app : MF受注のメール送信IDを更新(紐づくメール送信キューID)
    end
deactivate app
@enduml
