@startuml
title 【集荷関連】納品書印刷済処理

hide footbox
participant "NEアプリ(ふるさと納税アプリ)" as app
participant "NEAPI" as ne_api

activate app
    alt 定期実行(随時)
        app -> app : 受注ステータスが「納品書印刷待ち」で、紐づくメール送信キューの"メール送信ステータス"が正常終了のMF受注情報を取得

        alt 処理データが0件の場合
          <-- app : ログ出力、処理終了
        end

        loop
            app -> ne_api : 受注伝票納品書印刷済みをリクエスト
            note over app #98FB98
              https://developer.next-engine.com/api/api_v1_receiveorder_base/receipted
            end note
            alt NEAPIリクエストが処理エラーの場合
                app -> app : ログ出力、コンテニュー
            end
            activate ne_api
                ne_api -> app : 処理結果を返却
            deactivate ne_api
        end

        app -> app : 処理成功であれば、該当のMF受注の"受注ステータス"を納品書印刷済みに変更
    end
deactivate app
@enduml
