@startuml
title 【集荷関連】サプライヤーにメール送信

hide footbox
participant "NEアプリ(ふるさと納税アプリ)" as app
participant "S3" as s3
participant "サプライヤー" as supplier

activate app
    alt 定期実行(随時)
      app -> app : メール送信ステータスが処理待ちのメール送信キューを取得

      alt 処理データが0件の場合
        <-- app : ログ出力、処理終了
      end

      loop
          app -> s3 : 該当のメール送信キューのファイルパスを利用し、S3にファイルDLをリクエスト
          activate s3
            s3 -> app : ファイルを返却
          deactivate s3

          app -> app : DLしたファイルをtmpに保存

          app -> app : tmpファイルに鍵を付与

          app -> supplier : ファイルを添付し、サプライヤー毎にメール送信
          alt SESを利用できない場合
              <-- app : ログ出力、メール送信キューの"メール送信結果メッセージ"にメッセージを格納かつ"メール送信ステータス"は処理待ちに更新、処理終了
          end
      end

      app -> app : 処理したメール送信キューの"メール送信ステータス"を更新(正常終了)
    end
deactivate app
@enduml
